^E:\DOCUMENTS\PROGRAMING\VS_PROJECTS\HOMEWORK175\DEBUG\HOMEWORK175.OBJ
E:\DOCUMENTS\PROGRAMING\VS_PROJECTS\HOMEWORK175\DEBUG\HOMEWORK175.EXE
E:\DOCUMENTS\PROGRAMING\VS_PROJECTS\HOMEWORK175\DEBUG\HOMEWORK175.ILK
E:\DOCUMENTS\PROGRAMING\VS_PROJECTS\HOMEWORK175\DEBUG\HOMEWORK175.PDB
